количество_путей=3

вершины 0
140.85694885253906,292.7137145996094,-4.5609723997586116e-08
-27.90406036376953,150.4563446044922,-4.5609723997586116e-08
-32.639102935791016,146.37149047851562,-4.5609723997586116e-08
-37.28035354614258,142.36502075195312,-4.5609723997586116e-08
-41.7696533203125,138.47210693359375,-4.5609723997586116e-08
-46.04884338378906,134.72792053222656,-4.5609723997586116e-08
-50.05976867675781,131.16763305664062,-4.5609723997586116e-08
-53.744266510009766,127.826416015625,-4.5609723997586116e-08
-57.04418182373047,124.73944854736328,-4.5609723997586116e-08
-59.9013557434082,121.94190979003906,-4.5609723997586116e-08
-62.91956329345703,118.93758392333984,-4.5609723997586116e-08
-65.70718383789062,116.23217010498047,-4.5609723997586116e-08
-68.29966735839844,113.76205444335938,-4.5609723997586116e-08
-70.73246002197266,111.46360778808594,-4.5609723997586116e-08
-73.04100799560547,109.27320861816406,-4.5609723997586116e-08
-75.2607650756836,107.12723541259766,-4.5609723997586116e-08
-77.42716979980469,104.9620590209961,-4.5609723997586116e-08
-79.57567596435547,102.71406555175781,-4.5609723997586116e-08
-81.74173736572266,100.31962585449219,-4.5609723997586116e-08
-83.9607925415039,97.71511840820312,-4.5609723997586116e-08
-86.26829528808594,94.8369140625,-4.5609723997586116e-08
-88.69969177246094,91.62139892578125,-4.5609731103013473e-08
-91.08377838134766,88.33256530761719,-0.295138955116272
-93.09823608398438,85.45114135742188,-1.1111111640930176
-94.78641510009766,82.91966247558594,-2.34375
-96.1916732788086,80.6806640625,-3.8888888359069824
-97.35736846923828,78.67669677734375,-5.642360687255859
-98.32685852050781,76.85029602050781,-7.499999523162842
-99.14349365234375,75.14400482177734,-9.357638359069824
-99.85063171386719,73.5003662109375,-11.11111068725586
-100.49163055419922,71.86192321777344,-12.656249046325684
-101.1098403930664,70.17121887207031,-13.888887405395508
-101.74862670898438,68.37078857421875,-14.704858779907227
-102.45133972167969,66.40318298339844,-15.0
-103.18745422363281,64.30707550048828,-14.70486068725586
-103.89633178710938,62.1649284362793,-13.888888359069824
-104.57612609863281,59.98495101928711,-12.65625
-105.22500610351562,57.775352478027344,-11.11111068725586
-105.84114074707031,55.54433822631836,-9.357638359069824
-106.42268371582031,53.30012130737305,-7.499999523162842
-106.96781158447266,51.050907135009766,-5.642360687255859
-107.47467803955078,48.80490493774414,-3.8888888359069824
-107.94145202636719,46.5703239440918,-2.343750476837158
-108.36629486083984,44.35537338256836,-1.111112117767334
-108.74736785888672,42.16826248168945,-0.29514050483703613
-109.08284759521484,40.01719665527344,-4.560973820844083e-08
-109.80280303955078,33.083351135253906,-4.560973820844083e-08
-109.91212463378906,25.989017486572266,-4.560973820844083e-08
-109.35568237304688,18.674312591552734,-4.560973820844083e-08
-108.07832336425781,11.079357147216797,-4.560973820844083e-08
-106.02490997314453,3.144270420074463,-4.560973820844083e-08
-103.14029693603516,-5.190828800201416,-4.560973820844083e-08
-99.36933898925781,-13.985820770263672,-4.560973820844083e-08
-94.65689849853516,-23.300586700439453,-4.560973820844083e-08
-88.94783020019531,-33.19500732421875,-4.560973820844083e-08
-82.1869888305664,-43.728965759277344,-4.560973820844083e-08
-74.3192367553711,-54.96234130859375,-4.560973820844083e-08
-65.28942108154297,-66.95501708984375,-4.5609723997586116e-08
-62.97824478149414,-69.64628601074219,-4.47387051849546e-08
-60.184898376464844,-72.44841003417969,-4.244238382966614e-08
-57.008541107177734,-75.31855010986328,-3.919585722655938e-08
-53.548343658447266,-78.21385955810547,-3.547422977590031e-08
-49.90346908569336,-81.09148406982422,-3.175260232524124e-08
-46.17308044433594,-83.90858459472656,-2.8506077498491322e-08
-42.45634460449219,-86.622314453125,-2.6209754366846028e-08
-38.85242462158203,-89.1898193359375,-2.533873555421451e-08
-35.460487365722656,-91.5682601928711,-2.6368121908149078e-08
-32.37969970703125,-93.71478271484375,-2.9773014276202048e-08
-29.7092227935791,-95.5865478515625,-3.602851350592573e-08
-27.5482177734375,-97.14070129394531,-4.5609723997586116e-08
-25.242734909057617,-99.19242095947266,-5.7075599357858664e-08
-22.77618408203125,-101.94890594482422,-6.456158274659174e-08
-20.098392486572266,-105.27030944824219,-6.863623269737218e-08
-17.159183502197266,-109.01678466796875,-6.986810774378682e-08
-13.908380508422852,-113.04850006103516,-6.882575576128147e-08
-10.295808792114258,-117.2256088256836,-6.607773883615664e-08
-6.271292686462402,-121.40826416015625,-6.219261194928549e-08
-1.7846565246582031,-125.45663452148438,-5.7738926528827506e-08
3.214275360107422,-129.2308807373047,-5.328524110836952e-08
8.775678634643555,-132.59115600585938,-4.940011066878469e-08
14.949728012084961,-135.39761352539062,-4.665209019094618e-08
21.786598205566406,-137.51040649414062,-4.5609723997586116e-08
26.531442642211914,-138.30076599121094,-4.5609723997586116e-08
31.091232299804688,-138.40264892578125,-4.5609723997586116e-08
35.45562744140625,-137.88253784179688,-4.5609723997586116e-08
39.614288330078125,-136.8069305419922,-4.5609723997586116e-08
43.55687713623047,-135.24232482910156,-4.5609723997586116e-08
47.27305221557617,-133.25518798828125,-4.5609723997586116e-08
50.75247573852539,-130.91201782226562,-4.5609723997586116e-08
53.984806060791016,-128.27931213378906,-4.5609723997586116e-08
56.9597053527832,-125.42354583740234,-4.5609723997586116e-08
59.66683578491211,-122.41121673583984,-4.5609723997586116e-08
62.095855712890625,-119.30880737304688,-4.5609723997586116e-08
64.2364273071289,-116.18280029296875,-4.5609723997586116e-08
65.64482879638672,-113.95604705810547,-4.5609723997586116e-08
66.89423370361328,-111.91703796386719,-4.5609723997586116e-08
67.99750518798828,-110.02912139892578,-4.5609723997586116e-08
68.96752166748047,-108.2556381225586,-4.5609723997586116e-08
69.81715393066406,-106.5599365234375,-4.5609723997586116e-08
70.55927276611328,-104.90534973144531,-4.5609723997586116e-08
71.20675659179688,-103.2552261352539,-4.5609723997586116e-08
71.77247619628906,-101.57291412353516,-4.5609723997586116e-08
72.26930236816406,-99.82174682617188,-4.5609723997586116e-08
72.7101058959961,-97.96508026123047,-4.5609723997586116e-08
73.10775756835938,-95.96624755859375,-4.5609723997586116e-08
73.47513580322266,-93.7885971069336,-4.56097097867314e-08
73.80521392822266,-91.46530151367188,-0.295138955116272
74.07743072509766,-89.06124877929688,-1.1111111640930176
74.28435516357422,-86.58731079101562,-2.34375
74.4185562133789,-84.05435943603516,-3.8888888359069824
74.47259521484375,-81.47328186035156,-5.642360687255859
74.43903350830078,-78.85494995117188,-7.499999523162842
74.31044006347656,-76.21024322509766,-9.357638359069824
74.07938385009766,-73.55003356933594,-11.11111068725586
73.7384262084961,-70.88520050048828,-12.656249046325684
73.2801284790039,-68.22662353515625,-13.888887405395508
72.69705963134766,-65.58517456054688,-14.704858779907227
71.98180389404297,-62.97174072265625,-15.0
71.26103210449219,-60.343475341796875,-14.70486068725586
70.66012573242188,-57.65965270996094,-13.888888359069824
70.16963958740234,-54.934303283691406,-12.65625
69.78014373779297,-52.181461334228516,-11.11111068725586
69.48219299316406,-49.4151611328125,-9.357638359069824
69.26634979248047,-46.649436950683594,-7.499999523162842
69.1231689453125,-43.89832305908203,-5.642360687255859
69.043212890625,-41.17585372924805,-3.8888888359069824
69.01704406738281,-38.49605941772461,-2.343750476837158
69.03522491455078,-35.87297821044922,-1.111112117767334
69.08831024169922,-33.320640563964844,-0.29514050483703613
69.1668701171875,-30.85308074951172,-4.5609731103013473e-08
69.25146484375,-28.459566116333008,-4.5609731103013473e-08
69.32713317871094,-26.123178482055664,-4.5609731103013473e-08
69.39112091064453,-23.848665237426758,-4.5609731103013473e-08
69.44068145751953,-21.640775680541992,-4.5609731103013473e-08
69.47306060791016,-19.50425910949707,-4.5609731103013473e-08
69.48551177978516,-17.443862915039062,-4.5609731103013473e-08
69.47528839111328,-15.464337348937988,-4.5609731103013473e-08
69.43963623046875,-13.570430755615234,-4.5609731103013473e-08
69.37581634521484,-11.766891479492188,-4.5609731103013473e-08
69.28107452392578,-10.05846881866455,-4.5609731103013473e-08
69.15265655517578,-8.449911117553711,-4.5609731103013473e-08
68.98780822753906,-6.94597053527832,-4.5609731103013473e-08
68.37124633789062,-1.1477079391479492,-4.5609731103013473e-08
67.90637969970703,4.627319812774658,-4.5609731103013473e-08
67.46285247802734,10.350162506103516,-4.5609731103013473e-08
66.91030883789062,15.991870880126953,-4.5609731103013473e-08
66.1183853149414,21.523494720458984,-4.5609731103013473e-08
64.95671844482422,26.91608428955078,-4.5609731103013473e-08
63.29495620727539,32.140689849853516,-4.5609731103013473e-08
61.00273895263672,37.16836166381836,-4.5609731103013473e-08
57.94970703125,41.970149993896484,-4.5609731103013473e-08
54.0055046081543,46.5171012878418,-4.5609731103013473e-08
49.039772033691406,50.780269622802734,-4.5609731103013473e-08
42.922149658203125,54.730709075927734,-4.5609723997586116e-08
36.2815055847168,57.97758483886719,-4.5609723997586116e-08
29.84419059753418,60.20427322387695,-4.5609723997586116e-08
23.626073837280273,61.493133544921875,-4.5609723997586116e-08
17.643020629882812,61.92652130126953,-4.5609723997586116e-08
11.910896301269531,61.5867919921875,-4.5609723997586116e-08
6.445568084716797,60.55630111694336,-4.5609723997586116e-08
1.262901782989502,58.91740417480469,-4.5609723997586116e-08
-3.6212363243103027,56.75245666503906,-4.5609723997586116e-08
-8.190979957580566,54.14381408691406,-4.5609723997586116e-08
-12.430462837219238,51.17383575439453,-4.5609723997586116e-08
-16.32381820678711,47.92487335205078,-4.5609723997586116e-08
-19.855178833007812,44.47927474975586,-4.5609723997586116e-08
-23.0026798248291,40.85691452026367,-4.5609723997586116e-08
-25.75533103942871,37.05095672607422,-4.5609723997586116e-08
-28.11358642578125,33.10373306274414,-4.5609723997586116e-08
-30.077903747558594,29.057579040527344,-4.5609723997586116e-08
-31.64873695373535,24.954830169677734,-4.5609723997586116e-08
-32.826541900634766,20.837818145751953,-4.5609723997586116e-08
-33.61177444458008,16.748878479003906,-4.5609723997586116e-08
-34.00489044189453,12.730342864990234,-4.5609723997586116e-08
-34.006343841552734,8.824546813964844,-4.5609723997586116e-08
-33.6165885925293,5.073824405670166,-4.5609723997586116e-08
-32.836082458496094,1.5205092430114746,-4.5609723997586116e-08
-31.665279388427734,-1.7930679321289062,-4.5609723997586116e-08
-31.665279388427734,-1.7930679321289062,-100.0

вершины 1
183.06907653808594,-268.3425598144531,-4.5609723997586116e-08
144.25106811523438,-51.06254196166992,-4.5609723997586116e-08
143.0810089111328,-44.91945266723633,-4.5609723997586116e-08
141.9319305419922,-38.89677810668945,-4.5609723997586116e-08
140.80520629882812,-33.06247329711914,-4.5609723997586116e-08
139.70223999023438,-27.48448944091797,-4.5609723997586116e-08
138.62440490722656,-22.23078155517578,-4.5609723997586116e-08
137.5730743408203,-17.369304656982422,-4.5609723997586116e-08
136.5496368408203,-12.968009948730469,-4.5609723997586116e-08
135.5554656982422,-9.094841957092285,-4.5609723997586116e-08
134.46273803710938,-4.978831768035889,-4.5609723997586116e-08
133.5135955810547,-1.2119741439819336,-4.5609723997586116e-08
132.670654296875,2.2682414054870605,-4.5609723997586116e-08
131.8965301513672,5.524325370788574,-4.5609723997586116e-08
131.15386962890625,8.61878776550293,-4.5609723997586116e-08
130.4052734375,11.614139556884766,-4.5609723997586116e-08
129.61338806152344,14.572891235351562,-4.5609723997586116e-08
128.74082946777344,17.557552337646484,-4.5609723997586116e-08
127.75021362304688,20.630634307861328,-4.5609723997586116e-08
126.60417175292969,23.854646682739258,-4.5609723997586116e-08
125.26532745361328,27.29210090637207,-4.5609723997586116e-08
123.69630432128906,31.005504608154297,-4.5609731103013473e-08
122.0401382446289,34.714599609375,-0.295138955116272
120.5519790649414,37.89988327026367,-1.1111111640930176
119.20374298095703,40.62763214111328,-2.34375
117.96734619140625,42.9641227722168,-3.8888888359069824
116.81470489501953,44.97562789916992,-5.642360687255859
115.71774291992188,46.72842788696289,-7.499999523162842
114.64836883544922,48.28879928588867,-9.357638359069824
113.57850646972656,49.723018646240234,-11.11111068725586
112.48007202148438,51.09735870361328,-12.656249046325684
111.32498168945312,52.47809982299805,-13.888887405395508
110.08515930175781,53.9315185546875,-14.704858779907227
108.73250579833984,55.523887634277344,-15.0
107.28528594970703,57.20943832397461,-14.70486068725586
105.7845687866211,58.89441680908203,-13.888888359069824
104.2365493774414,60.57312774658203,-12.65625
102.64742279052734,62.23987579345703,-11.11111068725586
101.02337646484375,63.88896942138672,-9.357638359069824
99.37059783935547,65.51470947265625,-7.499999523162842
97.69528198242188,67.11140441894531,-5.642360687255859
96.00362396240234,68.6733627319336,-3.8888888359069824
94.30180358886719,70.19488525390625,-2.343750476837158
92.59602355957031,71.67028045654297,-1.111112117767334
90.89246368408203,73.09385681152344,-0.29514050483703613
89.19732666015625,74.45993041992188,-4.560973820844083e-08
83.55241394042969,78.55035400390625,-4.560973820844083e-08
77.46320343017578,82.19219970703125,-4.560973820844083e-08
70.85025787353516,85.3676528930664,-4.560973820844083e-08
63.634151458740234,88.05890655517578,-4.560973820844083e-08
55.73545455932617,90.24813842773438,-4.560973820844083e-08
47.074737548828125,91.91754150390625,-4.560973820844083e-08
37.57257080078125,93.0492935180664,-4.560973820844083e-08
27.149524688720703,93.62557983398438,-4.560973820844083e-08
15.726167678833008,93.62859344482422,-4.560973820844083e-08
3.2230710983276367,93.04051208496094,-4.560973820844083e-08
-10.439194679260254,91.84352111816406,-4.560973820844083e-08
-25.340044021606445,90.01980590820312,-4.5609723997586116e-08
-28.826335906982422,89.36389923095703,-4.47387051849546e-08
-32.649723052978516,88.3458480834961,-4.244238382966614e-08
-36.723514556884766,87.03011322021484,-3.919585722655938e-08
-40.961021423339844,85.48114776611328,-3.547422977590031e-08
-45.27555847167969,83.7634048461914,-3.175260232524124e-08
-49.5804328918457,81.94134521484375,-2.8506077498491322e-08
-53.78895568847656,80.07942199707031,-2.6209754366846028e-08
-57.81443786621094,78.2420883178711,-2.533873555421451e-08
-61.570194244384766,76.49380493164062,-2.6368121908149078e-08
-64.96952819824219,74.8990249633789,-2.9773014276202048e-08
-67.9257583618164,73.52220153808594,-3.602851350592573e-08
-70.35221099853516,72.42780303955078,-4.5609723997586116e-08
-73.28179931640625,71.4570541381836,-5.7075599357858664e-08
-76.90225982666016,70.6991958618164,-6.456158274659174e-08
-81.11756896972656,70.04085540771484,-6.863623269737218e-08
-85.83171844482422,69.36865997314453,-6.986810774378682e-08
-90.94868469238281,68.5692367553711,-6.882575576128147e-08
-96.37245178222656,67.52921295166016,-6.607773883615664e-08
-102.00699615478516,66.13520812988281,-6.219261194928549e-08
-107.75630950927734,64.27384948730469,-5.7738926528827506e-08
-113.52436065673828,61.83176803588867,-5.328524110836952e-08
-119.21514129638672,58.695587158203125,-4.940011066878469e-08
-124.73262786865234,54.751930236816406,-4.665209019094618e-08
-129.98080444335938,49.8874397277832,-4.5609723997586116e-08
-133.03768920898438,46.1734619140625,-4.5609723997586116e-08
-135.4058074951172,42.275508880615234,-4.5609723997586116e-08
-137.1375732421875,38.23577880859375,-4.5609723997586116e-08
-138.285400390625,34.09646987915039,-4.5609723997586116e-08
-138.90170288085938,29.899782180786133,-4.5609723997586116e-08
-139.03887939453125,25.68791389465332,-4.5609723997586116e-08
-138.7493438720703,21.503063201904297,-4.5609723997586116e-08
-138.08551025390625,17.387428283691406,-4.5609723997586116e-08
-137.09979248046875,13.383206367492676,-4.5609723997586116e-08
-135.8446044921875,9.532596588134766,-4.5609723997586116e-08
-134.37234497070312,5.8777971267700195,-4.5609723997586116e-08
-132.7354736328125,2.461005210876465,-4.5609723997586116e-08
-131.51124572753906,0.12791657447814941,-4.5609723997586116e-08
-130.3701171875,-1.973599910736084,-4.5609723997586116e-08
-129.28677368164062,-3.8730204105377197,-4.5609723997586116e-08
-128.23590087890625,-5.599821090698242,-4.5609723997586116e-08
-127.19219207763672,-7.183478355407715,-4.5609723997586116e-08
-126.13034057617188,-8.653468132019043,-4.5609723997586116e-08
-125.02503204345703,-10.039266586303711,-4.5609723997586116e-08
-123.85096740722656,-11.370349884033203,-4.5609723997586116e-08
-122.58282470703125,-12.676194190979004,-4.5609723997586116e-08
-121.19530487060547,-13.986275672912598,-4.5609723997586116e-08
-119.66309356689453,-15.330070495605469,-4.5609723997586116e-08
-117.96087646484375,-16.737051010131836,-4.56097097867314e-08
-116.11388397216797,-18.184553146362305,-0.295138955116272
-114.16802215576172,-19.622329711914062,-1.1111111640930176
-112.12899017333984,-21.038503646850586,-2.34375
-110.00249481201172,-22.42119789123535,-3.8888888359069824
-107.79423522949219,-23.758535385131836,-5.642360687255859
-105.5099105834961,-25.038639068603516,-7.499999523162842
-103.15522766113281,-26.249629974365234,-9.357638359069824
-100.73589324951172,-27.3796329498291,-11.11111068725586
-98.25759887695312,-28.41676902770996,-12.656249046325684
-95.72605895996094,-29.349163055419922,-13.888887405395508
-93.14696502685547,-30.164936065673828,-14.704858779907227
-90.5260238647461,-30.85221290588379,-15.0
-87.88949584960938,-31.542137145996094,-14.70486068725586
-85.26477813720703,-32.3636474609375,-13.888888359069824
-82.65931701660156,-33.301551818847656,-12.65625
-80.08053588867188,-34.34065628051758,-11.11111068725586
-77.53587341308594,-35.46577072143555,-9.357638359069824
-75.03276062011719,-36.661705017089844,-7.499999523162842
-72.5786361694336,-37.913265228271484,-5.642360687255859
-70.1809310913086,-39.205257415771484,-3.8888888359069824
-67.84707641601562,-40.522491455078125,-2.343750476837158
-65.58451080322266,-41.84977722167969,-1.111112117767334
-63.400665283203125,-43.17192077636719,-0.29514050483703613
-61.302982330322266,-44.47373580932617,-4.5609731103013473e-08
-59.27243423461914,-45.74375534057617,-4.5609731103013473e-08
-57.286895751953125,-46.97747802734375,-4.5609731103013473e-08
-55.34910202026367,-48.17014694213867,-4.5609731103013473e-08
-53.4617919921875,-49.31700897216797,-4.5609731103013473e-08
-51.62770462036133,-50.413307189941406,-4.5609731103013473e-08
-49.84957504272461,-51.454288482666016,-4.5609731103013473e-08
-48.13014221191406,-52.43519592285156,-4.5609731103013473e-08
-46.472145080566406,-53.35127639770508,-4.5609731103013473e-08
-44.87832260131836,-54.19777297973633,-4.5609731103013473e-08
-43.35141372680664,-54.969932556152344,-4.5609731103013473e-08
-41.8941535949707,-55.66299819946289,-4.5609731103013473e-08
-40.50928497314453,-56.272216796875,-4.5609731103013473e-08
-35.179561614990234,-58.637386322021484,-4.5609731103013473e-08
-29.94580841064453,-61.122314453125,-4.5609731103013473e-08
-24.76791763305664,-63.59962844848633,-4.5609731103013473e-08
-19.60578155517578,-65.94196319580078,-4.5609731103013473e-08
-14.419291496276855,-68.0219497680664,-4.5609731103013473e-08
-9.168339729309082,-69.71221160888672,-4.5609731103013473e-08
-3.8128185272216797,-70.88539123535156,-4.5609731103013473e-08
1.687380313873291,-71.41410827636719,-4.5609731103013473e-08
7.3723649978637695,-71.1709976196289,-4.5609731103013473e-08
13.282243728637695,-70.02869415283203,-4.5609731103013473e-08
19.457122802734375,-67.85982513427734,-4.5609731103013473e-08
25.937116622924805,-64.53702545166016,-4.5609723997586116e-08
32.069313049316406,-60.40949249267578,-4.5609723997586116e-08
37.216339111328125,-55.947959899902344,-4.5609723997586116e-08
41.44158172607422,-51.20734405517578,-4.5609723997586116e-08
44.808433532714844,-46.24256134033203,-4.5609723997586116e-08
47.380279541015625,-41.1085319519043,-4.5609723997586116e-08
49.22051239013672,-35.860172271728516,-4.5609723997586116e-08
50.39251708984375,-30.55240249633789,-4.5609723997586116e-08
50.959686279296875,-25.240140914916992,-4.5609723997586116e-08
50.985408782958984,-19.97830581665039,-4.5609723997586116e-08
50.53307342529297,-14.821815490722656,-4.5609723997586116e-08
49.66606903076172,-9.825589179992676,-4.5609723997586116e-08
48.44777297973633,-5.044541835784912,-4.5609723997586116e-08
46.88446807861328,-0.5075459480285645,-4.5609723997586116e-08
44.96473693847656,3.779298782348633,-4.5609723997586116e-08
42.725467681884766,7.795219898223877,-4.5609723997586116e-08
40.20355224609375,11.519445419311523,-4.5609723997586116e-08
37.435882568359375,14.931201934814453,-4.5609723997586116e-08
34.459346771240234,18.009716033935547,-4.5609723997586116e-08
31.310836791992188,20.734216690063477,-4.5609723997586116e-08
28.027240753173828,23.08393096923828,-4.5609723997586116e-08
24.645448684692383,25.0380859375,-4.5609723997586116e-08
21.202350616455078,26.575910568237305,-4.5609723997586116e-08
17.73483657836914,27.6766300201416,-4.5609723997586116e-08
14.279794692993164,28.319473266601562,-4.5609723997586116e-08
14.279794692993164,28.319473266601562,-100.0

вершины 2
-323.926025390625,-24.371185302734375,-4.5609723997586116e-08
-116.34699249267578,-99.39381408691406,-4.5609723997586116e-08
-110.44188690185547,-101.45205688476562,-4.5609723997586116e-08
-104.65155792236328,-103.46826171875,-4.5609723997586116e-08
-99.03553771972656,-105.40965270996094,-4.5609723997586116e-08
-93.65337371826172,-107.24344635009766,-4.5609723997586116e-08
-88.56460571289062,-108.93685913085938,-4.5609723997586116e-08
-83.82878112792969,-110.45712280273438,-4.5609723997586116e-08
-79.50543212890625,-111.77145385742188,-4.5609723997586116e-08
-75.65410614013672,-112.8470687866211,-4.5609723997586116e-08
-71.54317474365234,-113.95874786376953,-4.5609723997586116e-08
-67.80641174316406,-115.02019500732422,-4.5609723997586116e-08
-64.37098693847656,-116.03028869628906,-4.5609723997586116e-08
-61.16407775878906,-116.98792266845703,-4.5609723997586116e-08
-58.11286163330078,-117.89198303222656,-4.5609723997586116e-08
-55.14451599121094,-118.74136352539062,-4.5609723997586116e-08
-52.18621826171875,-119.53494262695312,-4.5609723997586116e-08
-49.16514205932617,-120.2716064453125,-4.5609723997586116e-08
-46.00846481323242,-120.95024871826172,-4.5609723997586116e-08
-42.64336395263672,-121.56975555419922,-4.5609723997586116e-08
-38.99701690673828,-122.1290054321289,-4.5609723997586116e-08
-34.996604919433594,-122.62689971923828,-4.5609731103013473e-08
-30.956350326538086,-123.04716491699219,-0.295138955116272
-27.453733444213867,-123.35102081298828,-1.1111111640930176
-24.417314529418945,-123.54728698730469,-2.34375
-21.775657653808594,-123.64478302001953,-3.8888888359069824
-19.457321166992188,-123.6523208618164,-5.642360687255859
-17.390869140625,-123.57872009277344,-7.499999523162842
-15.504862785339355,-123.43280029296875,-9.357638359069824
-13.727863311767578,-123.22338104248047,-11.11111068725586
-11.988432884216309,-122.95928192138672,-12.656249046325684
-10.215132713317871,-122.6493148803711,-13.888887405395508
-8.336524963378906,-122.30229949951172,-14.704858779907227
-6.2811665534973145,-121.92706298828125,-15.0
-4.097825527191162,-121.51651000976562,-14.70486068725586
-1.8882341384887695,-121.05934143066406,-13.888888359069824
0.3395805358886719,-120.55807495117188,-12.65625
2.57759165763855,-120.01522064208984,-11.11111068725586
4.817772388458252,-119.43330383300781,-9.357638359069824
7.052095413208008,-118.81482696533203,-7.499999523162842
9.272534370422363,-118.16230773925781,-5.642360687255859
11.471061706542969,-117.47826385498047,-3.8888888359069824
13.63965129852295,-116.76521301269531,-2.343750476837158
15.770276069641113,-116.02566528320312,-1.111112117767334
17.854907989501953,-115.26213073730469,-0.29514050483703613
19.885522842407227,-114.47712707519531,-4.560973820844083e-08
26.250385284423828,-111.63369750976562,-4.560973820844083e-08
32.44892120361328,-108.18120574951172,-4.560973820844083e-08
38.50541687011719,-104.04195404052734,-4.560973820844083e-08
44.44416046142578,-99.13825225830078,-4.560973820844083e-08
50.2894401550293,-93.39239501953125,-4.560973820844083e-08
56.0655403137207,-86.72669219970703,-4.560973820844083e-08
61.796749114990234,-79.06344604492188,-4.560973820844083e-08
67.50735473632812,-70.32496643066406,-4.560973820844083e-08
73.22164154052734,-60.433555603027344,-4.560973820844083e-08
78.96389770507812,-49.31151580810547,-4.560973820844083e-08
84.75840759277344,-36.88115310668945,-4.560973820844083e-08
90.62945556640625,-23.064783096313477,-4.5609723997586116e-08
91.80457305908203,-19.717613220214844,-4.47387051849546e-08
92.83460998535156,-15.897438049316406,-4.244238382966614e-08
93.73204803466797,-11.711562156677246,-3.919585722655938e-08
94.50936126708984,-7.2672882080078125,-3.547422977590031e-08
95.17902374267578,-2.6719188690185547,-3.175260232524124e-08
95.75350952148438,1.9672431945800781,-2.8506077498491322e-08
96.24530029296875,6.5428948402404785,-2.6209754366846028e-08
96.66686248779297,10.947732925415039,-2.533873555421451e-08
97.03068542480469,15.074455261230469,-2.6368121908149078e-08
97.34923553466797,18.815759658813477,-2.9773014276202048e-08
97.6349868774414,22.064342498779297,-3.602851350592573e-08
97.90042114257812,24.71290397644043,-4.5609723997586116e-08
98.52452087402344,27.73537254333496,-5.7075599357858664e-08
99.67842864990234,31.249710083007812,-6.456158274659174e-08
101.21595001220703,35.22944641113281,-6.863623269737218e-08
102.99089050292969,39.64811706542969,-6.986810774378682e-08
104.8570556640625,44.479251861572266,-6.882575576128147e-08
106.66825103759766,49.69638442993164,-6.607773883615664e-08
108.27828216552734,55.273048400878906,-6.219261194928549e-08
109.54095458984375,61.182777404785156,-5.7738926528827506e-08
110.3100814819336,67.39910125732422,-5.328524110836952e-08
110.43946075439453,73.89555358886719,-4.940011066878469e-08
109.78289794921875,80.64566802978516,-4.665209019094618e-08
108.19420623779297,87.62297058105469,-4.5609723997586116e-08
106.5062484741211,92.12730407714844,-4.5609723997586116e-08
104.31458282470703,96.12713623046875,-4.5609723997586116e-08
101.68196105957031,99.64675903320312,-4.5609723997586116e-08
98.67112731933594,102.71046447753906,-4.5609723997586116e-08
95.34484100341797,105.34253692626953,-4.5609723997586116e-08
91.7658462524414,107.56726837158203,-4.5609723997586116e-08
87.99689483642578,109.40895080566406,-4.5609723997586116e-08
84.10073852539062,110.89187622070312,-4.5609723997586116e-08
80.14012145996094,112.04032897949219,-4.5609723997586116e-08
76.17779541015625,112.87860870361328,-4.5609723997586116e-08
72.27651977539062,113.43099975585938,-4.5609723997586116e-08
68.49903869628906,113.72179412841797,-4.5609723997586116e-08
65.86640930175781,113.82813262939453,-4.5609723997586116e-08
63.47587585449219,113.89064025878906,-4.5609723997586116e-08
61.28925704956055,113.90214538574219,-4.5609723997586116e-08
59.268367767333984,113.85546112060547,-4.5609723997586116e-08
57.37502670288086,113.74341583251953,-4.5609723997586116e-08
55.57105255126953,113.55882263183594,-4.5609723997586116e-08
53.81826400756836,113.29450225830078,-4.5609723997586116e-08
52.0784797668457,112.94326782226562,-4.5609723997586116e-08
50.313514709472656,112.4979476928711,-4.5609723997586116e-08
48.485191345214844,111.95135498046875,-4.5609723997586116e-08
46.55532455444336,111.29631805419922,-4.5609723997586116e-08
44.48573303222656,110.52565002441406,-4.56097097867314e-08
42.30866241455078,109.64985656738281,-0.295138955116272
40.090579986572266,108.68357849121094,-1.1111111640930176
37.84461975097656,107.62580871582031,-2.34375
35.58392333984375,106.47555541992188,-3.8888888359069824
33.321624755859375,105.2318115234375,-5.642360687255859
31.07086181640625,103.89358520507812,-7.499999523162842
28.844772338867188,102.45986938476562,-9.357638359069824
26.656492233276367,100.9296646118164,-11.11111068725586
24.5191593170166,99.30197143554688,-12.656249046325684
22.445911407470703,97.57579040527344,-13.888887405395508
20.449886322021484,95.7501220703125,-14.704858779907227
18.544219970703125,93.8239517211914,-15.0
16.628461837768555,91.88561248779297,-14.70486068725586
14.604656219482422,90.02330017089844,-13.888888359069824
12.489675521850586,88.23585510253906,-12.65625
10.300394058227539,86.5221176147461,-11.11111068725586
8.05368423461914,84.88093566894531,-9.357638359069824
5.766420364379883,83.31114196777344,-7.499999523162842
3.455475330352783,81.81158447265625,-5.642360687255859
1.1377229690551758,80.38111114501953,-3.8888888359069824
-1.1699633598327637,79.0185546875,-2.343750476837158
-3.4507100582122803,77.7227554321289,-1.111112117767334
-5.687644004821777,76.49256134033203,-0.29514050483703613
-7.863887786865234,75.32681274414062,-4.5609731103013473e-08
-9.979029655456543,74.20331573486328,-4.5609731103013473e-08
-12.040233612060547,73.10064697265625,-4.5609731103013473e-08
-14.042012214660645,72.01880645751953,-4.5609731103013473e-08
-15.97887897491455,70.95777893066406,-4.5609731103013473e-08
-17.845346450805664,69.91756439208984,-4.5609731103013473e-08
-19.635927200317383,68.89814758300781,-4.5609731103013473e-08
-21.345134735107422,67.89952850341797,-4.5609731103013473e-08
-22.96748161315918,66.92169952392578,-4.5609731103013473e-08
-24.497480392456055,65.96466064453125,-4.5609731103013473e-08
-25.929645538330078,65.02839660644531,-4.5609731103013473e-08
-27.258487701416016,64.11290740966797,-4.5609731103013473e-08
-28.4785213470459,63.21818542480469,-4.5609731103013473e-08
-33.191680908203125,59.78509521484375,-4.5609731103013473e-08
-37.960567474365234,56.4949951171875,-4.5609731103013473e-08
-42.69493103027344,53.24946594238281,-4.5609731103013473e-08
-47.30451965332031,49.95009231567383,-4.5609731103013473e-08
-51.6990852355957,46.498451232910156,-4.5609731103013473e-08
-55.78837203979492,42.79612350463867,-4.5609731103013473e-08
-59.48213195800781,38.744693756103516,-4.5609731103013473e-08
-62.69011688232422,34.2457389831543,-4.5609731103013473e-08
-65.32207489013672,29.200843811035156,-4.5609731103013473e-08
-67.28775024414062,23.511587142944336,-4.5609731103013473e-08
-68.49689483642578,17.07954978942871,-4.5609731103013473e-08
-68.85926055908203,9.806312561035156,-4.5609723997586116e-08
-68.35081481933594,2.4319071769714355,-4.5609723997586116e-08
-67.0605239868164,-4.2563157081604,-4.5609723997586116e-08
-65.0676498413086,-10.28579330444336,-4.5609723997586116e-08
-62.451446533203125,-15.68396282196045,-4.5609723997586116e-08
-59.291168212890625,-20.478261947631836,-4.5609723997586116e-08
-55.666072845458984,-24.696128845214844,-4.5609723997586116e-08
-51.65541076660156,-28.364999771118164,-4.5609723997586116e-08
-47.33843994140625,-31.512311935424805,-4.5609723997586116e-08
-42.79441833496094,-34.165504455566406,-4.5609723997586116e-08
-38.10260009765625,-36.352012634277344,-4.5609723997586116e-08
-33.34223937988281,-38.099273681640625,-4.5609723997586116e-08
-28.59259033203125,-39.43473434448242,-4.5609723997586116e-08
-23.881784439086914,-40.349369049072266,-4.5609723997586116e-08
-19.209402084350586,-40.83025360107422,-4.5609723997586116e-08
-14.611878395080566,-40.89895248413086,-4.5609723997586116e-08
-10.125648498535156,-40.577022552490234,-4.5609723997586116e-08
-5.787146091461182,-39.88602828979492,-4.5609723997586116e-08
-1.6328063011169434,-38.847530364990234,-4.5609723997586116e-08
2.300936460494995,-37.483089447021484,-4.5609723997586116e-08
5.97764778137207,-35.81427001953125,-4.5609723997586116e-08
9.360893249511719,-33.86262893676758,-4.5609723997586116e-08
12.414237976074219,-31.649730682373047,-4.5609723997586116e-08
15.10124683380127,-29.19713592529297,-4.5609723997586116e-08
17.38548469543457,-26.526403427124023,-4.5609723997586116e-08
17.38548469543457,-26.526403427124023,-100.0

разрывы 0
106,128
22,44

разрывы 1
22,44
106,128

разрывы 2
22,44
106,128

унитазы
-18.53,122.09
-96.47,-77.09
115.0,-45.0

