количество_путей=1

вершины 0
303.42303466796875,194.53756713867188,5.515653174370527e-05
116.43156433105469,80.93522644042969,0.0
109.85801696777344,76.57560729980469,0.0
102.17181396484375,71.9026107788086,0.0
93.52460479736328,67.03974914550781,0.0
84.06803131103516,62.11056137084961,0.0
73.9537353515625,57.23857879638672,0.0
63.33335494995117,52.547332763671875,0.0
52.3585319519043,48.16035461425781,0.0
41.180908203125,44.201175689697266,0.0
29.952125549316406,40.79332733154297,0.0
18.82382583618164,38.060340881347656,0.0
7.947651386260986,36.12574768066406,0.0
-2.5247578620910645,35.11308288574219,0.0
-8.101282119750977,35.16975402832031,0.0
-13.526552200317383,35.8519287109375,0.0
-18.804161071777344,37.08063888549805,0.0
-23.93770408630371,38.776920318603516,0.0
-28.93077278137207,40.86180877685547,0.0
-33.78696060180664,43.2563362121582,0.0
-38.50986099243164,45.88153839111328,0.0
-43.103065490722656,48.658447265625,0.0
-47.57017135620117,51.508094787597656,0.0
-51.91476821899414,54.35151672363281,0.0
-56.14044952392578,57.10974884033203,0.0
-60.25081253051758,59.70382308959961,0.0
-64.36295318603516,61.82112121582031,0.0
-68.55270385742188,63.23399353027344,0.0
-72.7617416381836,63.99092102050781,0.0
-76.93174743652344,64.140380859375,0.0
-81.00439453125,63.73085021972656,0.0
-84.92137145996094,62.81081008911133,0.0
-88.62435150146484,61.42873764038086,0.0
-92.05500793457031,59.633113861083984,0.0
-95.155029296875,57.47241973876953,0.0
-97.8660888671875,54.99513244628906,0.0
-100.12986755371094,52.249732971191406,0.0
-101.88804626464844,49.284698486328125,0.0
-103.12818908691406,46.073577880859375,0.0
-103.87602996826172,42.607582092285156,0.0
-104.13042449951172,38.96171569824219,0.0
-103.8902359008789,35.21097183227539,0.0
-103.15434265136719,31.430349349975586,0.0
-101.9216079711914,27.694841384887695,0.0
-100.19090270996094,24.079444885253906,0.0
-97.96109771728516,20.659154891967773,0.0
-95.23106384277344,17.50896644592285,0.0
-91.99966430664062,14.703877449035645,0.0
-88.26577758789062,12.31888198852539,0.0
-84.02826690673828,10.428976058959961,0.0
-79.4201431274414,8.83302116394043,0.0
-74.61570739746094,7.244922637939453,0.0
-69.67574310302734,5.612227916717529,0.0
-64.6610336303711,3.8824872970581055,0.0
-59.632354736328125,2.003251075744629,0.0
-54.65049743652344,-0.07793045043945312,0.0
-49.7762451171875,-2.4135069847106934,0.0
-45.07038116455078,-5.0559282302856445,0.0
-40.593685150146484,-8.05764389038086,0.0
-36.406944274902344,-11.471104621887207,0.0
-32.57094192504883,-15.348758697509766,0.0
-29.146459579467773,-19.743057250976562,0.0
-26.290437698364258,-24.523090362548828,0.0
-24.07162094116211,-29.498092651367188,0.0
-22.418502807617188,-34.630828857421875,0.0
-21.25957489013672,-39.8840446472168,0.0
-20.52332878112793,-45.220489501953125,0.0
-20.138256072998047,-50.60291290283203,0.0
-20.032846450805664,-55.994056701660156,0.0
-20.13559341430664,-61.35667037963867,0.0
-20.37498664855957,-66.65350341796875,0.0
-20.679519653320312,-71.84729766845703,0.0
-20.97768211364746,-76.90080261230469,0.0
-21.197967529296875,-81.77676391601562,0.0
-21.009763717651367,-86.4194107055664,0.0
-20.176679611206055,-90.77970123291016,0.0
-18.768535614013672,-94.83048248291016,0.0
-16.855152130126953,-98.54460144042969,0.0
-14.506346702575684,-101.8949203491211,0.0
-11.791939735412598,-104.85427856445312,0.0
-8.781750679016113,-107.3955307006836,0.0
-5.545598983764648,-109.49153137207031,0.0
-2.153304100036621,-111.11512756347656,0.0
1.3253138065338135,-112.23917388916016,0.0
4.820435523986816,-112.83651733398438,0.0
8.26224136352539,-112.8800048828125,0.0
11.667852401733398,-112.35059356689453,0.0
15.056459426879883,-111.27131652832031,0.0
18.361345291137695,-109.6781234741211,0.0
21.515790939331055,-107.60697937011719,0.0
24.45307731628418,-105.09384155273438,0.0
27.106487274169922,-102.17466735839844,0.0
29.4093017578125,-98.88541412353516,0.0
31.294803619384766,-95.26203918457031,0.0
32.69627380371094,-91.34049987792969,0.0
33.546993255615234,-87.1567611694336,0.0
33.78024673461914,-82.74677276611328,0.0
33.329315185546875,-78.14649963378906,0.0
32.43368911743164,-73.3699951171875,0.0
31.427082061767578,-68.42461395263672,0.0
30.38410186767578,-63.336204528808594,0.0
29.37936019897461,-58.130615234375,0.0
28.48746681213379,-52.833702087402344,0.0
27.78303337097168,-47.471317291259766,0.0
27.340667724609375,-42.06932067871094,0.0
27.2349796295166,-36.653564453125,0.0
27.54058074951172,-31.24990463256836,0.0
28.332080841064453,-25.884193420410156,0.0
29.68408966064453,-20.58228874206543,0.0
31.671215057373047,-15.370043754577637,0.0
35.898406982421875,-7.15595006942749,0.0
40.494293212890625,-0.17092657089233398,0.0
45.33684158325195,5.687322616577148,0.0
50.30400466918945,10.52109146118164,0.0
55.27373504638672,14.432673454284668,0.0
60.123985290527344,17.524362564086914,0.0
64.73270416259766,19.898452758789062,0.0
68.97784423828125,21.657236099243164,0.0
72.73735809326172,22.90300941467285,0.0
75.88919830322266,23.73806381225586,0.0
78.31131744384766,24.264694213867188,0.0
79.88166809082031,24.585193634033203,0.0
79.88166809082031,24.585193634033203,-100.0

разрывы 0

унитазы
56.11,-26.16
-5.4,61.67
-50.71,-35.51

