89.32002258300781,-145.81373596191406,0.0
89.16875457763672,-141.27943420410156,0.0
88.58085632324219,-133.15234375,0.0
87.63618469238281,-122.1513900756836,0.0
86.41461181640625,-108.99553680419922,0.0
84.99601745605469,-94.40373992919922,0.0
83.46025848388672,-79.09494018554688,0.0
81.88720703125,-63.78809356689453,0.0
80.35674285888672,-49.2021369934082,0.0
78.94871520996094,-36.0560417175293,0.0
77.74300384521484,-25.06875228881836,0.0
76.8194808959961,-16.959211349487305,0.0
76.25801086425781,-12.446375846862793,0.0
75.62487030029297,-8.853376388549805,0.0
74.69496154785156,-4.942057132720947,0.0
73.4583969116211,-0.7727869153022766,0.0
71.90530395507812,3.5940566062927246,0.0
70.0257797241211,8.098099708557129,0.0
67.80995178222656,12.678967475891113,0.0
65.24794006347656,17.27628517150879,0.0
62.32985305786133,21.829679489135742,0.0
59.04581069946289,26.278772354125977,0.0
55.38593292236328,30.563194274902344,0.0
51.34033203125,34.62256622314453,0.0
46.89912033081055,38.396514892578125,0.0
41.56382369995117,42.32552719116211,0.0
36.24968338012695,45.8072509765625,0.0
30.974241256713867,48.84526824951172,0.0
25.755035400390625,51.44315719604492,0.0
20.609609603881836,53.604488372802734,0.0
15.555508613586426,55.33284378051758,0.0
10.610275268554688,56.631797790527344,0.0
5.791455268859863,57.50492858886719,0.0
1.1165907382965088,57.955806732177734,0.0
-3.3967742919921875,57.988014221191406,0.0
-7.731095790863037,57.605125427246094,0.0
-11.868830680847168,56.81071472167969,0.0
-16.421411514282227,55.558349609375,0.0
-20.802440643310547,54.110443115234375,0.0
-25.005361557006836,52.48611831665039,0.0
-29.023618698120117,50.70452117919922,0.0
-32.85066223144531,48.78477478027344,0.0
-36.479942321777344,46.74602127075195,0.0
-39.904903411865234,44.607391357421875,0.0
-43.118995666503906,42.388023376464844,0.0
-46.115665435791016,40.10704803466797,0.0
-48.888362884521484,37.783599853515625,0.0
-51.43053436279297,35.43681335449219,0.0
-53.73563003540039,33.085819244384766,0.0
-56.09724426269531,30.322986602783203,0.0
-58.56279373168945,26.99320411682129,0.0
-61.09966278076172,23.12574577331543,0.0
-63.675228118896484,18.749889373779297,0.0
-66.25686645507812,13.894909858703613,0.0
-68.81194305419922,8.590082168579102,0.0
-71.30784606933594,2.8646833896636963,0.0
-73.7119369506836,-3.252011299133301,0.0
-75.9916000366211,-9.73072624206543,0.0
-78.11420440673828,-16.542186737060547,0.0
-80.04712677001953,-23.657114028930664,0.0
-81.75773620605469,-31.046234130859375,0.0
-83.21771240234375,-38.465877532958984,0.0
-84.9046630859375,-47.90508270263672,0.0
-86.74166870117188,-58.88368225097656,0.0
-88.6518325805664,-70.9214859008789,0.0
-90.55827331542969,-83.5383071899414,0.0
-92.38407897949219,-96.25396728515625,0.0
-94.05236053466797,-108.58826446533203,0.0
-95.48621368408203,-120.06102752685547,0.0
-96.60874938964844,-130.1920623779297,0.0
-97.34306335449219,-138.50119018554688,0.0
-97.61227416992188,-144.50820922851562,0.0
-97.33946990966797,-147.7329559326172,0.0
