количество_путей=3

вершины 0
156.37020874023438,246.40328979492188,0.0
-15.259761810302734,145.8855438232422,0.0
-17.5047607421875,144.49075317382812,0.0
-21.091312408447266,142.17950439453125,0.0
-24.65966033935547,139.7379150390625,0.0
-28.27741241455078,137.06271362304688,0.0
-32.01217269897461,134.0506134033203,0.0
-35.931549072265625,130.5983428955078,0.0
-40.103145599365234,126.6026382446289,0.0
-44.59457015991211,121.960205078125,0.0
-54.90205383300781,109.78828430175781,0.0
-63.44541549682617,97.42727661132812,0.0
-70.36808776855469,85.04346466064453,0.0
-75.81351470947266,72.80313873291016,0.0
-79.92512512207031,60.87257766723633,0.0
-82.84635925292969,49.418067932128906,0.0
-84.72064971923828,38.60589599609375,0.0
-85.69143676757812,28.602340698242188,0.0
-85.90215301513672,19.57369041442871,0.0
-85.49623107910156,11.686227798461914,0.0
-84.61711120605469,5.106236934661865,0.0
-83.40821075439453,0.0,0.0
-81.25177001953125,-6.617617130279541,0.0
-79.05595397949219,-12.586715698242188,0.0
-76.8135986328125,-17.960411071777344,0.0
-74.51753234863281,-22.791818618774414,0.0
-72.16059112548828,-27.134052276611328,0.0
-69.73560333251953,-31.040225982666016,0.0
-67.23541259765625,-34.56345748901367,0.0
-64.65283966064453,-37.756858825683594,0.0
-61.9807243347168,-40.67354202270508,0.0
-59.21189880371094,-43.36662673950195,0.0
-56.339195251464844,-45.889225006103516,0.0
-53.355445861816406,-48.294456481933594,0.0
-49.08670425415039,-51.349056243896484,0.0
-44.72531509399414,-53.968353271484375,0.0
-40.28938674926758,-56.16761016845703,0.0
-35.79703140258789,-57.96208953857422,0.0
-31.266357421875,-59.36705017089844,0.0
-26.71547508239746,-60.39775466918945,0.0
-22.162494659423828,-61.06946563720703,0.0
-17.62552833557129,-61.39744567871094,0.0
-13.122684478759766,-61.39695739746094,0.0
-8.672075271606445,-61.08325958251953,0.0
-4.291809558868408,-60.471614837646484,0.0
0.0,-59.577293395996094,0.0
3.348662853240967,-58.65019989013672,0.0
6.867836952209473,-57.4577751159668,0.0
10.486197471618652,-56.02186584472656,0.0
14.132421493530273,-54.36431884765625,0.0
17.735183715820312,-52.50697708129883,0.0
21.223159790039062,-50.47168731689453,0.0
24.525026321411133,-48.28029251098633,0.0
27.569459915161133,-45.95464324951172,0.0
30.28513526916504,-43.516578674316406,0.0
32.600730895996094,-40.98794937133789,0.0
35.76836013793945,-35.823585510253906,3.7443317069119075e-07
35.746376037597656,-35.746376037597656,-70.0

вершины 1
134.6633758544922,-226.13323974609375,6.2364952100324444e-06
133.99908447265625,-59.747108459472656,0.0
133.88504028320312,-57.08579635620117,0.0
133.6767120361328,-52.82412338256836,0.0
133.34640502929688,-48.51304626464844,0.0
132.83848571777344,-44.04237747192383,0.0
132.09730529785156,-39.30192947387695,0.0
131.06724548339844,-34.1815185546875,0.0
129.69265747070312,-28.57095718383789,0.0
127.91792297363281,-22.360055923461914,0.0
122.53046417236328,-7.347553253173828,0.0
116.09719848632812,6.231718063354492,0.0
108.8338394165039,18.418834686279297,0.0
100.95611572265625,29.254873275756836,0.0
92.67974853515625,38.78091049194336,0.0
84.22046661376953,47.03802490234375,0.0
75.79399108886719,54.067291259765625,0.0
67.61605072021484,59.9097900390625,0.0
59.902366638183594,64.60659790039062,0.0
52.86865997314453,68.19879150390625,0.0
46.73065948486328,70.7274398803711,0.0
41.704097747802734,72.23363494873047,0.0
34.89485168457031,73.67491149902344,0.0
28.627552032470703,74.75782775878906,0.0
22.852617263793945,75.50273895263672,0.0
17.520462036132812,75.92999267578125,0.0
12.581506729125977,76.0599365234375,0.0
7.986168384552002,75.91292572021484,0.0
3.6848645210266113,75.50930786132812,0.0
-0.37198686599731445,74.86943817138672,0.0
-4.2339677810668945,74.01365661621094,0.0
-7.950660705566406,72.96232604980469,0.0
-11.571647644042969,71.73578643798828,0.0
-15.146510124206543,70.35440063476562,0.0
-19.92624282836914,68.18486022949219,0.0
-24.375316619873047,65.71743774414062,0.0
-28.497894287109375,62.975440979003906,0.0
-32.29813766479492,59.98218536376953,0.0
-35.780208587646484,56.760986328125,0.0
-38.948265075683594,53.33515930175781,0.0
-41.80647277832031,49.72801971435547,0.0
-44.35899353027344,45.96288299560547,0.0
-46.609989166259766,42.06306076049805,0.0
-48.563621520996094,38.05187225341797,0.0
-50.224056243896484,33.95262908935547,0.0
-51.59545135498047,29.78864097595215,0.0
-52.466896057128906,26.425067901611328,0.0
-53.19381332397461,22.78116226196289,0.0
-53.75946044921875,18.929615020751953,0.0
-54.1470947265625,14.943119049072266,0.0
-54.339969635009766,10.894364356994629,0.0
-54.32134246826172,6.856042385101318,0.0
-54.0744743347168,2.9008445739746094,0.0
-53.582618713378906,-0.8985378742218018,0.0
-52.82903289794922,-4.469413757324219,0.0
-51.796974182128906,-7.739091873168945,0.0
-48.799827575683594,-13.08372688293457,5.848002970765265e-08
-48.8304557800293,-13.084088325500488,-70.0

вершины 2
-263.5059814453125,-1.0094070434570312,0.0
-118.62407684326172,-86.27346801757812,0.0
-116.38029479980469,-87.40496063232422,0.0
-112.58541107177734,-89.35537719726562,0.0
-108.68675231933594,-91.22486114501953,0.0
-104.56108093261719,-93.02032470703125,0.0
-100.08514404296875,-94.74867248535156,0.0
-95.13570404052734,-96.41681671142578,0.0
-89.58952331542969,-98.03166961669922,0.0
-83.32334899902344,-99.60015106201172,0.0
-67.62841033935547,-102.44072723388672,0.0
-52.65178298950195,-103.65898895263672,0.0
-38.46575164794922,-103.46229553222656,0.0
-25.14260482788086,-102.0580062866211,0.0
-12.754632949829102,-99.65348815917969,0.0
-1.3741226196289062,-96.45609283447266,0.0
8.926637649536133,-92.67318725585938,0.0
18.075359344482422,-88.51213073730469,0.0
25.999753952026367,-84.18028259277344,0.0
32.627532958984375,-79.885009765625,0.0
37.886409759521484,-75.83367156982422,0.0
41.70410919189453,-72.23363494873047,0.0
46.35691452026367,-67.05729675292969,0.0
50.42839813232422,-62.17111587524414,0.0
53.960975646972656,-57.542327880859375,0.0
56.997066497802734,-53.1381721496582,0.0
59.57908248901367,-48.92588424682617,0.0
61.74943542480469,-44.87269592285156,0.0
63.55054473876953,-40.94584655761719,0.0
65.02482604980469,-37.112571716308594,0.0
66.21469116210938,-33.34010696411133,0.0
67.16255950927734,-29.59568977355957,0.0
67.91084289550781,-25.846553802490234,0.0
68.501953125,-22.059940338134766,0.0
69.01294708251953,-16.83580207824707,0.0
69.10063171386719,-11.749078750610352,0.0
68.78727722167969,-6.807823181152344,0.0
68.09516143798828,-2.0200886726379395,0.0
67.04655456542969,2.6060714721679688,0.0
65.66372680664062,7.062603950500488,0.0
63.968955993652344,11.341455459594727,0.0
61.98451232910156,15.434574127197266,0.0
59.732666015625,19.333906173706055,0.0
57.23569107055664,23.031396865844727,0.0
54.5158576965332,26.51899528503418,0.0
51.5954475402832,29.788654327392578,0.0
49.118228912353516,32.225135803222656,0.0
46.32597351074219,34.67661666870117,0.0
43.27326202392578,37.092254638671875,0.0
40.014671325683594,39.42120361328125,0.0
36.60478591918945,41.61261749267578,0.0
33.098182678222656,43.61565017700195,0.0
29.54944610595703,45.37945556640625,0.0
26.01315689086914,46.853187561035156,0.0
22.543893814086914,47.986000061035156,0.0
19.196239471435547,48.72705078125,0.0
13.100377082824707,48.905609130859375,-4.273540454846625e-08
13.084078788757324,48.83046340942383,-70.0

разрывы 0

разрывы 1

разрывы 2

унитазы
-2,103
-89,-54
91,-50

