количество_путей=2

вершины 0
300.0,0.0,0.0
120.0,0.0,0.0
117.48187255859375,0.0322142168879509,0.0
114.91992950439453,0.10855179280042648,0.0
112.30282592773438,0.1985526978969574,0.0
109.61922454833984,0.2717573642730713,0.0
106.85777282714844,0.2977062463760376,0.0
104.00712585449219,0.24593976140022278,0.0
101.05594635009766,0.08599832653999329,0.0
97.99288177490234,-0.21257761120796204,0.0
94.80659484863281,-0.6802476048469543,0.0
91.4857406616211,-1.3474712371826172,0.0
88.01897430419922,-2.2447080612182617,0.0
84.39495086669922,-3.4024176597595215,0.0
83.07105255126953,-3.87894606590271,4.10468325995339e-11
81.8083267211914,-4.359954357147217,1.545302913408264e-10
80.59293365478516,-4.85060453414917,3.2596270127527305e-10
79.4110107421875,-5.356058120727539,5.408568037879036e-10
78.24869537353516,-5.881476402282715,7.84725395774899e-10
77.09212493896484,-6.432021141052246,1.0430811769879256e-09
75.92743682861328,-7.012853145599365,1.3014369582009522e-09
74.74076843261719,-7.629134178161621,1.5453055501879476e-09
73.51825714111328,-8.286025047302246,1.760199652700578e-09
72.24604034423828,-8.988687515258789,1.93163196549051e-09
70.9102554321289,-9.74228286743164,2.0451154103540148e-09
69.49703979492188,-10.551972389221191,2.086162576020456e-09
68.06812286376953,-11.39079475402832,-0.23611468076705933
66.6795654296875,-12.234674453735352,-0.8888919949531555
65.30899047851562,-13.093123435974121,-1.8750027418136597
63.934017181396484,-13.97564697265625,-3.1111135482788086
62.53226852416992,-14.891751289367676,-4.513891220092773
61.08137512207031,-15.850943565368652,-6.000001907348633
59.558956146240234,-16.862730026245117,-7.486112594604492
57.94264221191406,-17.936616897583008,-8.888890266418457
56.210052490234375,-19.082111358642578,-10.125000953674316
54.33881759643555,-20.308719635009766,-11.111111640930176
52.306556701660156,-21.625947952270508,-11.76388931274414
50.09089660644531,-23.043302536010742,-12.0
47.82905578613281,-24.505931854248047,-11.763887405395508
45.658390045166016,-25.949899673461914,-11.111109733581543
43.55670166015625,-27.37108039855957,-10.124999046325684
41.50180435180664,-28.765352249145508,-8.888888359069824
39.47150802612305,-30.128589630126953,-7.486110687255859
37.443626403808594,-31.456668853759766,-6.0
35.395965576171875,-32.74546813964844,-4.513888835906982
33.306339263916016,-33.99085998535156,-3.1111111640930176
31.152555465698242,-35.188724517822266,-1.875
28.912424087524414,-36.334938049316406,-0.8888888955116272
26.563758850097656,-37.42537307739258,-0.2361111044883728
24.084367752075195,-38.455909729003906,-1.7881393032936899e-09
21.573026657104492,-39.351463317871094,-1.7529556695095039e-09
19.14252281188965,-40.051605224609375,-1.655684256363088e-09
16.791683197021484,-40.57419204711914,-1.5087423532733624e-09
14.519331932067871,-40.93708038330078,-1.324547471703852e-09
12.324296951293945,-41.15813064575195,-1.1155173451626865e-09
10.205405235290527,-41.25519943237305,-8.940695961356937e-10
8.161481857299805,-41.24614715576172,-6.726218471087009e-10
6.191354751586914,-41.148826599121094,-4.6359166505638427e-10
4.293849468231201,-40.98109817504883,-2.793967834868738e-10
2.467792510986328,-40.76082229614258,-1.3245476937484568e-10
0.7120107412338257,-40.50585174560547,-3.5183297247831646e-11
-0.9746695756912231,-40.234046936035156,0.0
-5.697113513946533,-39.17274475097656,0.0
-10.237689971923828,-37.60399627685547,0.0
-14.589632034301758,-35.555049896240234,0.0
-18.746173858642578,-33.053138732910156,0.0
-22.700546264648438,-30.125507354736328,0.0
-26.445981979370117,-26.799392700195312,0.0
-29.97571563720703,-23.102035522460938,0.0
-33.28297805786133,-19.0606746673584,0.0
-36.36100387573242,-14.70255184173584,0.0
-39.20302200317383,-10.05490493774414,0.0
-41.802268981933594,-5.144974231719971,0.0
-44.151973724365234,9.974684189728578e-07,0.0
-46.199893951416016,5.1553802490234375,3.0649456306264256e-09
-47.8966178894043,10.14883041381836,1.1334549299135688e-08
-49.23964309692383,15.0315580368042,2.3420657413453227e-08
-50.22645950317383,19.854772567749023,3.7935176777637025e-08
-50.85456466674805,24.669681549072266,5.349001241938822e-08
-51.12145233154297,29.527494430541992,6.869706936640796e-08
-51.02461624145508,34.47941970825195,8.216825619911106e-08
-50.56155014038086,39.576663970947266,9.251548505062601e-08
-49.7297477722168,44.87043762207031,9.835065384322661e-08
-48.526702880859375,50.411949157714844,9.828567471004135e-08
-46.94990921020508,56.252403259277344,9.093245267877137e-08
-44.996864318847656,62.44301223754883,7.490289277711781e-08
-44.31092071533203,64.45559692382812,-0.23611468076705933
-43.61940383911133,66.40451049804688,-0.8888919949531555
-42.90869140625,68.30410766601562,-1.8750027418136597
-42.1651496887207,70.16876220703125,-3.1111135482788086
-41.375152587890625,72.0128402709961,-4.513891220092773
-40.52506637573242,73.8507080078125,-6.000001907348633
-39.601261138916016,75.69674682617188,-7.486112594604492
-38.590110778808594,77.56531524658203,-8.888890266418457
-37.47798156738281,79.47078704833984,-10.125000953674316
-36.251243591308594,81.42753601074219,-11.111111640930176
-34.896270751953125,83.4499282836914,-11.76388931274414
-33.39942932128906,85.55233001708984,-12.0
-31.827960968017578,87.63015747070312,-11.763887405395508
-30.25769805908203,89.57312774658203,-11.111109733581543
-28.687891006469727,91.3870620727539,-10.124999046325684
-27.117794036865234,93.07779693603516,-8.888888359069824
-25.546659469604492,94.65116119384766,-7.486110687255859
-23.973737716674805,96.11297607421875,-6.0
-22.398283004760742,97.46907043457031,-4.513888835906982
-20.819549560546875,98.72527313232422,-3.1111111640930176
-19.236787796020508,99.88742065429688,-1.875
-17.649250030517578,100.96133422851562,-0.888888955116272
-16.056190490722656,101.95283508300781,-0.23611114919185638
-14.45686149597168,102.86775970458984,-3.7451446388558907e-08
-11.557561874389648,104.32791137695312,-3.783846480587272e-08
-8.52531623840332,105.58219909667969,-3.6534970604407135e-08
-5.3426971435546875,106.60962677001953,-3.385677160849809e-08
-1.9922771453857422,107.38919830322266,-3.0119679195195204e-08
1.5433721542358398,107.89991760253906,-2.56395011888344e-08
5.281678199768066,108.12078857421875,-2.07320489664653e-08
9.240068435668945,108.03081512451172,-1.571313390513751e-08
13.435970306396484,107.60899353027344,-1.0898567381900648e-08
17.886812210083008,106.83433532714844,-6.604160773804324e-09
22.610021591186523,105.68584442138672,-3.1457230154074978e-09
27.62302589416504,104.14252471923828,-8.390658723378408e-10
32.94325256347656,102.18338012695312,0.0
38.35673904418945,99.64472961425781,-6.450305567451409e-11
43.63469696044922,96.39823913574219,-2.4283405841707406e-10
48.772308349609375,92.4758529663086,-5.122277046964996e-10
53.76475524902344,87.90951538085938,-8.499183024035517e-10
58.60721969604492,82.7311782836914,-1.2331402565735061e-09
63.294883728027344,76.97279357910156,-1.639127944486063e-09
67.82292938232422,70.66631317138672,-2.0451156323986197e-09
72.18653869628906,63.843685150146484,-2.428337531057423e-09
76.38089752197266,56.536865234375,-2.7660280732533238e-09
80.40118408203125,48.777801513671875,-3.0354216917771737e-09
84.2425765991211,40.59844970703125,-3.213752819419824e-09
87.90026092529297,32.030757904052734,-3.278255444882916e-09
88.52429962158203,30.400466918945312,-0.23611468076705933
89.25483703613281,28.32296371459961,-0.8888919949531555
90.0682144165039,25.87207794189453,-1.8750027418136597
90.9407730102539,23.12163734436035,-3.1111135482788086
91.8488540649414,20.14546775817871,-4.513891220092773
92.768798828125,17.017396926879883,-6.000001907348633
93.67694091796875,13.811249732971191,-7.486112594604492
94.54962158203125,10.600854873657227,-8.888890266418457
95.3631820678711,7.460038185119629,-10.125000953674316
96.09395599365234,4.462626934051514,-11.111111640930176
96.71829223632812,1.6824485063552856,-11.76388931274414
97.2125244140625,-0.8066707849502563,-12.0
97.59366607666016,-3.173490524291992,-11.763887405395508
97.89569091796875,-5.62253475189209,-11.111109733581543
98.12035369873047,-8.133642196655273,-10.124999046325684
98.2694091796875,-10.68664836883545,-8.888888359069824
98.3446044921875,-13.261388778686523,-7.486110687255859
98.34770202636719,-15.837697982788086,-6.0
98.28044891357422,-18.39541244506836,-4.513888835906982
98.14460754394531,-20.914365768432617,-3.1111111640930176
97.94192504882812,-23.3743953704834,-1.875
97.67415618896484,-25.755334854125977,-0.8888888955116272
97.34306335449219,-28.03702163696289,-0.2361111044883728
96.95039367675781,-30.199289321899414,-8.940696516468449e-10
95.75442504882812,-35.605064392089844,-1.0409640927022679e-09
94.35980224609375,-40.807857513427734,-1.0997203148122026e-09
92.72334289550781,-45.80534744262695,-1.0847032161365178e-09
90.8018569946289,-50.59519958496094,-1.010277861368536e-09
88.55216217041016,-55.17508316040039,-8.908094817350332e-10
85.93107604980469,-59.54267120361328,-7.406632529516344e-10
82.8954086303711,-63.69562911987305,-5.742043507339645e-10
79.4019775390625,-67.63162994384766,-4.057978952864971e-10
75.40760040283203,-71.34834289550781,-2.498090623248572e-10
70.86909484863281,-74.84343719482422,-1.2060302756466967e-10
65.74327850341797,-78.11457824707031,-3.254495284377157e-11
59.986961364746094,-81.15943908691406,0.0
53.5189208984375,-83.38723754882812,0.0
46.41055679321289,-84.33332824707031,0.0
38.847618103027344,-84.1845474243164,0.0
31.01586151123047,-83.12773895263672,0.0
23.10103988647461,-81.34973907470703,0.0
15.28890609741211,-79.03739929199219,0.0
7.765216827392578,-76.37755584716797,0.0
0.715723991394043,-73.55705261230469,0.0
-5.6738176345825195,-70.76272583007812,0.0
-11.21765422821045,-68.18142700195312,0.0
-15.730031967163086,-65.99999237060547,0.0
-19.025196075439453,-64.40526580810547,0.0
-24.185962677001953,-61.7806510925293,0.0
-29.167104721069336,-58.857364654541016,0.0
-33.96474838256836,-55.6267204284668,0.0
-38.57501220703125,-52.08003234863281,0.0
-42.9940185546875,-48.2086067199707,0.0
-47.21788787841797,-44.00375747680664,0.0
-51.242740631103516,-39.45679473876953,0.0
-55.064701080322266,-34.55902862548828,0.0
-58.67988586425781,-29.301769256591797,0.0
-62.084415435791016,-23.676326751708984,0.0
-65.2744140625,-17.674013137817383,0.0
-68.24600219726562,-11.286138534545898,0.0
-68.24600219726562,-11.286138534545898,-100.0

вершины 1
-300.0,1.8119495507562533e-05,0.0
-120.0,1.8119495507562533e-05,0.0
-117.48187255859375,-0.03219577670097351,0.0
-114.91992950439453,-0.10853379964828491,0.0
-112.30282592773438,-0.19853515923023224,0.0
-109.61922454833984,-0.27174028754234314,0.0
-106.85777282714844,-0.29768961668014526,0.0
-104.00712585449219,-0.24592360854148865,0.0
-101.05594635009766,-0.08598268032073975,0.0
-97.99288177490234,0.2125927209854126,0.0
-94.80659484863281,0.6802621483802795,0.0
-91.4857406616211,1.3474851846694946,0.0
-88.01897430419922,2.2447214126586914,0.0
-84.39495086669922,3.402430295944214,0.0
-83.07105255126953,3.878957509994507,4.10468325995339e-11
-81.8083267211914,4.359965801239014,1.545302913408264e-10
-80.59293365478516,4.850615978240967,3.2596270127527305e-10
-79.4110107421875,5.356069564819336,5.408568037879036e-10
-78.24869537353516,5.881487846374512,7.84725395774899e-10
-77.09212493896484,6.432032108306885,1.0430811769879256e-09
-75.92743682861328,7.012864112854004,1.3014369582009522e-09
-74.74076843261719,7.629144668579102,1.5453055501879476e-09
-73.51825714111328,8.286035537719727,1.760199652700578e-09
-72.24604034423828,8.98869800567627,1.93163196549051e-09
-70.9102554321289,9.742293357849121,2.0451154103540148e-09
-69.49703979492188,10.551982879638672,2.086162576020456e-09
-68.06813049316406,11.390801429748535,-0.23611468076705933
-66.67957305908203,12.234682083129883,-0.8888919949531555
-65.30899047851562,13.093131065368652,-1.8750027418136597
-63.93401336669922,13.975654602050781,-3.1111135482788086
-62.532264709472656,14.891758918762207,-4.513891220092773
-61.08137130737305,15.850951194763184,-6.000001907348633
-59.55895233154297,16.86273765563965,-7.486112594604492
-57.9426383972168,17.93662452697754,-8.888890266418457
-56.21004867553711,19.08211898803711,-10.125000953674316
-54.33881378173828,20.308727264404297,-11.111111640930176
-52.30655288696289,21.62595558166504,-11.76388931274414
-50.09089279174805,23.043310165405273,-12.0
-47.82905960083008,24.50594139099121,-11.763887405395508
-45.65839385986328,25.949909210205078,-11.111109733581543
-43.556705474853516,27.371089935302734,-10.124999046325684
-41.501808166503906,28.765361785888672,-8.888888359069824
-39.47151184082031,30.128599166870117,-7.486110687255859
-37.443626403808594,31.45667839050293,-6.0
-35.395965576171875,32.74547576904297,-4.513888835906982
-33.30633544921875,33.990867614746094,-3.1111111640930176
-31.152551651000977,35.1887321472168,-1.875
-28.91242027282715,36.33494186401367,-0.8888888955116272
-26.563753128051758,37.425376892089844,-0.2361111044883728
-24.084362030029297,38.45591354370117,-1.7881393032936899e-09
-21.573020935058594,39.351463317871094,-1.7529556695095039e-09
-19.14251708984375,40.051605224609375,-1.655684256363088e-09
-16.791677474975586,40.57419204711914,-1.5087423532733624e-09
-14.519326210021973,40.93708038330078,-1.324547471703852e-09
-12.324291229248047,41.15813064575195,-1.1155173451626865e-09
-10.205399513244629,41.25519943237305,-8.940695961356937e-10
-8.161476135253906,41.24614715576172,-6.726218471087009e-10
-6.191349029541016,41.148826599121094,-4.6359166505638427e-10
-4.2938432693481445,40.98109817504883,-2.793967834868738e-10
-2.4677865505218506,40.76082229614258,-1.3245476937484568e-10
-0.7120046615600586,40.50585174560547,-3.5183297247831646e-11
0.9746756553649902,40.234046936035156,0.0
5.697120666503906,39.17274475097656,0.0
10.237696647644043,37.60399627685547,0.0
14.589638710021973,35.55504608154297,0.0
18.746179580688477,33.05313491821289,0.0
22.700551986694336,30.125503540039062,0.0
26.445987701416016,26.799388885498047,0.0
29.975719451904297,23.102031707763672,0.0
33.282981872558594,19.060670852661133,0.0
36.36100387573242,14.702547073364258,0.0
39.20302200317383,10.054899215698242,0.0
41.802268981933594,5.144967555999756,0.0
44.151973724365234,-7.664230906812008e-06,0.0
46.19989013671875,-5.155387878417969,3.0649456306264256e-09
47.89661407470703,-10.14883804321289,1.1334549299135688e-08
49.2396354675293,-15.03156566619873,2.3420657413453227e-08
50.2264518737793,-19.854780197143555,3.7935176777637025e-08
50.854557037353516,-24.669689178466797,5.349001241938822e-08
51.12144470214844,-29.527502059936523,6.869706936640796e-08
51.02460861206055,-34.479427337646484,8.216825619911106e-08
50.56154251098633,-39.5766716003418,9.251548505062601e-08
49.729740142822266,-44.870445251464844,9.835065384322661e-08
48.526695251464844,-50.411956787109375,9.828567471004135e-08
46.94990158081055,-56.252410888671875,9.093245267877137e-08
44.996856689453125,-62.44301986694336,7.490289277711781e-08
44.310909271240234,-64.45561218261719,-0.23611468076705933
43.61939239501953,-66.40452575683594,-0.8888919949531555
42.9086799621582,-68.30412292480469,-1.8750027418136597
42.165138244628906,-70.16877746582031,-3.1111135482788086
41.37514114379883,-72.01285552978516,-4.513891220092773
40.525054931640625,-73.85072326660156,-6.000001907348633
39.60124969482422,-75.6967544555664,-7.486112594604492
38.5900993347168,-77.56532287597656,-8.888890266418457
37.477970123291016,-79.47079467773438,-10.125000953674316
36.2512321472168,-81.42754364013672,-11.111111640930176
34.89625930786133,-83.44993591308594,-11.76388931274414
33.399417877197266,-85.55233764648438,-12.0
31.82794952392578,-87.63017272949219,-11.763887405395508
30.257686614990234,-89.5731430053711,-11.111109733581543
28.68787956237793,-91.38707733154297,-10.124999046325684
27.117782592773438,-93.07781219482422,-8.888888359069824
25.546646118164062,-94.65117645263672,-7.486110687255859
23.973724365234375,-96.11299133300781,-6.0
22.398269653320312,-97.46908569335938,-4.513888835906982
20.819534301757812,-98.72528839111328,-3.1111111640930176
19.236772537231445,-99.8874282836914,-1.875
17.649234771728516,-100.96133422851562,-0.888888955116272
16.056175231933594,-101.95283508300781,-0.23611114919185638
14.456846237182617,-102.86775970458984,-3.7451446388558907e-08
11.557544708251953,-104.32791137695312,-3.783846480587272e-08
8.525299072265625,-105.58219909667969,-3.6534970604407135e-08
5.342679977416992,-106.60962677001953,-3.385677160849809e-08
1.9922597408294678,-107.38919830322266,-3.0119679195195204e-08
-1.5433895587921143,-107.89991760253906,-2.56395011888344e-08
-5.281695365905762,-108.12078857421875,-2.07320489664653e-08
-9.24008560180664,-108.03080749511719,-1.571313390513751e-08
-13.43598747253418,-107.6089859008789,-1.0898567381900648e-08
-17.886829376220703,-106.8343276977539,-6.604160773804324e-09
-22.61003875732422,-105.68583679199219,-3.1457230154074978e-09
-27.623043060302734,-104.14251708984375,-8.390658723378408e-10
-32.943267822265625,-102.1833724975586,0.0
-38.356754302978516,-99.64474487304688,-6.450305567451409e-11
-43.63471221923828,-96.39825439453125,-2.4283405841707406e-10
-48.77232360839844,-92.47586059570312,-5.122277046964996e-10
-53.7647705078125,-87.90951538085938,-8.499183024035517e-10
-58.607234954833984,-82.7311782836914,-1.2331402565735061e-09
-63.294898986816406,-76.97279357910156,-1.639127944486063e-09
-67.82294464111328,-70.66631317138672,-2.0451156323986197e-09
-72.18655395507812,-63.843685150146484,-2.428337531057423e-09
-76.38090515136719,-56.536861419677734,-2.7660280732533238e-09
-80.40119171142578,-48.77779769897461,-3.0354216917771737e-09
-84.24258422851562,-40.59844207763672,-3.213752819419824e-09
-87.9002685546875,-32.03074645996094,-3.278255444882916e-09
-88.52429962158203,-30.400453567504883,-0.23611468076705933
-89.25483703613281,-28.32295036315918,-0.8888919949531555
-90.0682144165039,-25.8720645904541,-1.8750027418136597
-90.9407730102539,-23.121623992919922,-3.1111135482788086
-91.8488540649414,-20.14545440673828,-4.513891220092773
-92.768798828125,-17.01738166809082,-6.000001907348633
-93.67694091796875,-13.811234474182129,-7.486112594604492
-94.54962158203125,-10.600839614868164,-8.888890266418457
-95.3631820678711,-7.460022926330566,-10.125000953674316
-96.09395599365234,-4.462612152099609,-11.111111640930176
-96.71829223632812,-1.682433843612671,-11.76388931274414
-97.2125244140625,0.8066854476928711,-12.0
-97.59367370605469,3.1735057830810547,-11.763887405395508
-97.89569854736328,5.622550010681152,-11.111109733581543
-98.120361328125,8.133657455444336,-10.124999046325684
-98.26941680908203,10.686663627624512,-8.888888359069824
-98.34461212158203,13.261404037475586,-7.486110687255859
-98.34770965576172,15.837713241577148,-6.0
-98.28045654296875,18.395427703857422,-4.513888835906982
-98.14460754394531,20.91438102722168,-3.1111111640930176
-97.94192504882812,23.37441062927246,-1.875
-97.67415618896484,25.75535011291504,-0.8888888955116272
-97.34305572509766,28.037036895751953,-0.2361111044883728
-96.95038604736328,30.199304580688477,-8.940696516468449e-10
-95.75442504882812,35.60507583618164,-1.0409640927022679e-09
-94.35980224609375,40.80786895751953,-1.0997203148122026e-09
-92.72334289550781,45.805355072021484,-1.0847032161365178e-09
-90.8018569946289,50.59520721435547,-1.010277861368536e-09
-88.55216217041016,55.17509078979492,-8.908094817350332e-10
-85.93106842041016,59.54267883300781,-7.406632529516344e-10
-82.89540100097656,63.69563674926758,-5.742043507339645e-10
-79.40196990966797,67.63163757324219,-4.057978952864971e-10
-75.4075927734375,71.34835052490234,-2.498090623248572e-10
-70.86908721923828,74.84344482421875,-1.2060302756466967e-10
-65.74327087402344,78.11458587646484,-3.254495284377157e-11
-59.9869499206543,81.1594467163086,0.0
-53.518917083740234,83.38725280761719,0.0
-46.41054916381836,84.33334350585938,0.0
-38.84761047363281,84.18456268310547,0.0
-31.015853881835938,83.12775421142578,0.0
-23.101030349731445,81.3497543334961,0.0
-15.288896560668945,79.03740692138672,0.0
-7.765206336975098,76.3775634765625,0.0
-0.7157135009765625,73.55705261230469,0.0
5.673828125,70.76272583007812,0.0
11.21766471862793,68.18142700195312,0.0
15.73004150390625,65.99999237060547,0.0
19.025205612182617,64.40526580810547,0.0
24.18596649169922,61.7806510925293,0.0
29.1671085357666,58.857364654541016,0.0
33.964752197265625,55.6267204284668,0.0
38.575016021728516,52.08002853393555,0.0
42.994022369384766,48.20860290527344,0.0
47.217891693115234,44.003753662109375,0.0
51.24274444580078,39.456787109375,0.0
55.06470489501953,34.55902099609375,0.0
58.67988967895508,29.301761627197266,0.0
62.08441925048828,23.676319122314453,0.0
65.2744140625,17.67400360107422,0.0
68.24600219726562,11.286128044128418,0.0
68.24600219726562,11.286128044128418,-100.0

разрывы 0
134,156
26,48
85,109

разрывы 1
134,156
26,48
86,108

унитазы
-72,38
72,-38

