количество_путей=2

вершины 0
-11.737373352050781,224.21461486816406,-7.776885468047112e-06
-89.29037475585938,81.35380554199219,3.766273692917821e-08
-91.46322631835938,77.39724731445312,0.0
-95.41382598876953,69.30525970458984,0.0
-98.09033966064453,60.361366271972656,0.0
-99.62718200683594,50.772735595703125,0.0
-100.15875244140625,40.74652099609375,0.0
-99.81946563720703,30.489887237548828,0.0
-98.74372100830078,20.20999526977539,0.0
-97.0659408569336,10.114004135131836,0.0
-94.92052459716797,0.4090738296508789,0.0
-92.44187927246094,-8.69763469696045,0.0
-89.76441955566406,-16.998960494995117,0.0
-87.02255249023438,-24.287742614746094,0.0
-84.0330810546875,-31.230422973632812,0.0
-80.5377197265625,-38.5081672668457,0.0
-76.55821990966797,-45.93592071533203,0.0
-72.1163330078125,-53.3286247253418,0.0
-67.23381042480469,-60.501220703125,0.0
-61.93239974975586,-67.26864624023438,0.0
-56.23386001586914,-73.44584655761719,0.0
-50.159942626953125,-78.84776306152344,0.0
-43.732398986816406,-83.2893295288086,0.0
-36.972984313964844,-86.58549499511719,0.0
-29.9034481048584,-88.55119323730469,0.0
-22.545543670654297,-89.00137329101562,0.0
-20.310009002685547,-88.87962341308594,-6.737675695145384e-11
-18.258325576782227,-88.73969268798828,-2.536536536368317e-10
-16.358339309692383,-88.57391357421875,-5.350506704360214e-10
-14.577898025512695,-88.37464141845703,-8.877877877289109e-10
-12.884847640991211,-88.13421630859375,-1.2880849720176002e-09
-11.247036933898926,-87.84498596191406,-1.7121621898041894e-09
-9.632311820983887,-87.4992904663086,-2.1362394075907787e-09
-8.00852108001709,-87.0894775390625,-2.5365365363683168e-09
-6.343510627746582,-86.60789489746094,-2.8892737091723575e-09
-4.605128288269043,-86.04688262939453,-3.1706706149492447e-09
-2.7612218856811523,-85.39879608154297,-3.3569476087791372e-09
-0.7796381711959839,-84.65596771240234,-3.424324379608379e-09
0.3098553419113159,-84.19741821289062,-3.356947830823742e-09
1.5048938989639282,-83.62368774414062,-3.1706708369938497e-09
2.787019729614258,-82.94850158691406,-2.8892737091723575e-09
4.1377763748168945,-82.18560028076172,-2.5365365363683168e-09
5.538707256317139,-81.34870910644531,-2.1362394075907787e-09
6.97135591506958,-80.45156860351562,-1.7121621898041894e-09
8.417265892028809,-79.5079116821289,-1.2880849720176002e-09
9.857980728149414,-78.53146362304688,-8.877877877289109e-10
11.275044441223145,-77.53597259521484,-5.350506704360214e-10
12.649999618530273,-76.53516387939453,-2.536536536368317e-10
13.96438980102539,-75.54277038574219,-6.737675695145384e-11
15.199759483337402,-74.57252502441406,0.0
16.379003524780273,-73.61272430419922,0.0
17.533721923828125,-72.64628601074219,0.0
18.658517837524414,-71.67891693115234,0.0
19.74799346923828,-70.71630859375,0.0
20.796749114990234,-69.76416015625,0.0
21.799388885498047,-68.82817840576172,0.0
22.750513076782227,-67.91404724121094,0.0
23.644723892211914,-67.02747344970703,0.0
24.47662353515625,-66.17415618896484,0.0
25.240814208984375,-65.35978698730469,0.0
25.93189811706543,-64.59007263183594,0.0
26.544475555419922,-63.870704650878906,0.0
27.68301010131836,-62.43789291381836,-0.23611468076705933
28.82858657836914,-60.88855743408203,-0.8888919949531555
29.96853256225586,-59.237144470214844,-1.8750027418136597
31.090173721313477,-57.49810028076172,-3.1111135482788086
32.18083190917969,-55.68586349487305,-4.513891220092773
33.22783279418945,-53.814884185791016,-6.000001907348633
34.218502044677734,-51.89960479736328,-7.486112594604492
35.14016342163086,-49.9544677734375,-8.888890266418457
35.980140686035156,-47.993919372558594,-10.125000953674316
36.72575759887695,-46.03240203857422,-11.111111640930176
37.364341735839844,-44.0843620300293,-11.76388931274414
37.883216857910156,-42.164241790771484,-12.0
38.30124282836914,-40.29784393310547,-11.763887405395508
38.648738861083984,-38.49324035644531,-11.111109733581543
38.930179595947266,-36.73827362060547,-10.124999046325684
39.15003967285156,-35.02078628540039,-8.888888359069824
39.312801361083984,-33.32862091064453,-7.486110687255859
39.422943115234375,-31.64962387084961,-6.0
39.48494338989258,-29.971637725830078,-4.513888835906982
39.50328063964844,-28.282506942749023,-3.1111111640930176
39.4824333190918,-26.57007598876953,-1.875
39.4268798828125,-24.822189331054688,-0.8888888955116272
39.34109878540039,-23.026691436767578,-0.2361111044883728
39.22956848144531,-21.171424865722656,0.0
38.89573287963867,-18.260101318359375,-3.1464946204096123e-09
38.26980209350586,-15.120942115783691,-1.1923340537123295e-08
37.37192153930664,-11.796808242797852,-2.5336817088827956e-08
36.22224044799805,-8.330561637878418,-4.239315742893268e-08
34.840904235839844,-4.76506233215332,-6.209859293448972e-08
33.2480583190918,-1.1431725025177002,-8.34593549825513e-08
31.46385383605957,2.4922471046447754,-1.0548168205559705e-07
29.50843620300293,6.098335266113281,-1.2717180197796552e-07
27.401954650878906,9.632230758666992,-1.4753594257399527e-07
25.164554595947266,13.05107307434082,-1.655803458788796e-07
22.81638526916504,16.312000274658203,-1.8031124682238442e-07
20.377593994140625,19.37215232849121,-1.9073488033427566e-07
19.020530700683594,20.944618225097656,-0.23611468076705933
17.617528915405273,22.4871768951416,-0.8888919949531555
16.164634704589844,24.000789642333984,-1.8750027418136597
14.657894134521484,25.48641014099121,-3.1111135482788086
13.093350410461426,26.944997787475586,-4.513891220092773
11.467050552368164,28.37750816345215,-6.000001907348633
9.775038719177246,29.78489875793457,-7.486112594604492
8.013360023498535,31.16812515258789,-8.888890266418457
6.1780595779418945,32.52814483642578,-10.125000953674316
4.2651824951171875,33.86591339111328,-11.111111640930176
2.2707741260528564,35.18239212036133,-11.76388931274414
0.19087934494018555,36.47853469848633,-12.0
-1.2393335103988647,37.31731414794922,-11.763887405395508
-2.641164779663086,38.07878112792969,-11.111109733581543
-4.043899059295654,38.77260971069336,-10.124999046325684
-5.476821422576904,39.40846633911133,-8.888888359069824
-6.969217300415039,39.99602127075195,-7.486110687255859
-8.550372123718262,40.544944763183594,-6.0
-10.249570846557617,41.06490707397461,-4.513888835906982
-12.096098899841309,41.56557846069336,-3.1111111640930176
-14.119240760803223,42.0566291809082,-1.8750001192092896
-16.348281860351562,42.5477294921875,-0.8888890743255615
-18.81250762939453,43.04854965209961,-0.23611131310462952
-21.541202545166016,43.56875991821289,-2.4942252707660373e-07
-24.461997985839844,44.031219482421875,-2.855587695194117e-07
-27.41345977783203,44.32834243774414,-2.987878531257593e-07
-30.38949203491211,44.442352294921875,-2.928771323240653e-07
-33.38398742675781,44.35547637939453,-2.7159396154274873e-07
-36.390838623046875,44.04994201660156,-2.38705666788519e-07
-39.4039421081543,43.507972717285156,-1.9797958827894035e-07
-42.41719436645508,42.711795806884766,-1.5318303780986753e-07
-45.42448425292969,41.643638610839844,-1.0808335559886473e-07
-48.419708251953125,40.285728454589844,-6.644788186349615e-08
-51.39676284790039,38.62028884887695,-3.2043946163184955e-08
-54.34954071044922,36.62954330444336,-8.638875392819045e-09
-57.271934509277344,34.29572296142578,0.0
-60.6072998046875,30.997791290283203,0.0
-63.51401901245117,27.268699645996094,0.0
-65.9735336303711,23.1663818359375,0.0
-67.96726989746094,18.748764038085938,0.0
-69.47665405273438,14.073774337768555,0.0
-70.48310852050781,9.199338912963867,0.0
-70.96806335449219,4.183385848999023,0.0
-70.91294860839844,-0.9161591529846191,0.0
-70.29918670654297,-6.04136848449707,0.0
-69.10820007324219,-11.134315490722656,0.0
-67.32141876220703,-16.137073516845703,0.0
-64.92027282714844,-20.991714477539062,0.0
-61.48236083984375,-26.28083038330078,0.0
-57.716636657714844,-30.747583389282227,0.0
-53.67671585083008,-34.424957275390625,0.0
-49.416202545166016,-37.34593963623047,0.0
-44.98870086669922,-39.543514251708984,0.0
-40.44781494140625,-41.05066680908203,0.0
-35.84714889526367,-41.90038299560547,0.0
-31.24030876159668,-42.125648498535156,0.0
-26.68089485168457,-41.75945281982422,0.0
-22.222511291503906,-40.83477783203125,0.0
-17.918764114379883,-39.384613037109375,0.0
-13.823254585266113,-37.44194030761719,0.0
-13.823254585266113,-37.44194030761719,-100.0

вершины 1
12.742034912109375,227.71311950683594,-4.0161907577385136e-07
89.7494888305664,80.78482055664062,-1.11729159257834e-08
91.46322631835938,77.39724731445312,0.0
95.41382598876953,69.30525970458984,0.0
98.09033966064453,60.361366271972656,0.0
99.62718200683594,50.772735595703125,0.0
100.15875244140625,40.74652099609375,0.0
99.81946563720703,30.489887237548828,0.0
98.74372100830078,20.20999526977539,0.0
97.0659408569336,10.114004135131836,0.0
94.92052459716797,0.4090738296508789,0.0
92.44187927246094,-8.69763469696045,0.0
89.76441955566406,-16.998960494995117,0.0
87.02255249023438,-24.287742614746094,0.0
84.0330810546875,-31.230422973632812,0.0
80.5377197265625,-38.5081672668457,0.0
76.55821990966797,-45.93592071533203,0.0
72.1163330078125,-53.3286247253418,0.0
67.23381042480469,-60.501220703125,0.0
61.93239974975586,-67.26864624023438,0.0
56.23386001586914,-73.44584655761719,0.0
50.159942626953125,-78.84776306152344,0.0
43.732398986816406,-83.2893295288086,0.0
36.972984313964844,-86.58549499511719,0.0
29.9034481048584,-88.55119323730469,0.0
22.545543670654297,-89.00137329101562,0.0
20.310009002685547,-88.87962341308594,-0.23611468076705933
18.258325576782227,-88.73969268798828,-0.8888919949531555
16.358339309692383,-88.57391357421875,-1.8750027418136597
14.577898025512695,-88.37464141845703,-3.1111135482788086
12.884847640991211,-88.13421630859375,-4.513891220092773
11.247036933898926,-87.84498596191406,-6.000001907348633
9.632311820983887,-87.4992904663086,-7.486112594604492
8.00852108001709,-87.0894775390625,-8.888890266418457
6.343510627746582,-86.60789489746094,-10.125000953674316
4.605128288269043,-86.04688262939453,-11.111111640930176
2.7612218856811523,-85.39879608154297,-11.76388931274414
0.7796381711959839,-84.65596771240234,-12.0
-0.3098553419113159,-84.19741821289062,-11.763887405395508
-1.5048938989639282,-83.62368774414062,-11.111109733581543
-2.787019729614258,-82.94850158691406,-10.124999046325684
-4.1377763748168945,-82.18560028076172,-8.888888359069824
-5.538707256317139,-81.34870910644531,-7.486110687255859
-6.97135591506958,-80.45156860351562,-6.0
-8.417265892028809,-79.5079116821289,-4.513888835906982
-9.857980728149414,-78.53146362304688,-3.1111111640930176
-11.275044441223145,-77.53597259521484,-1.875
-12.649999618530273,-76.53516387939453,-0.8888888955116272
-13.96438980102539,-75.54277038574219,-0.2361111044883728
-15.199759483337402,-74.57252502441406,0.0
-16.379003524780273,-73.61272430419922,0.0
-17.533721923828125,-72.64628601074219,0.0
-18.658517837524414,-71.67891693115234,0.0
-19.74799346923828,-70.71630859375,0.0
-20.796749114990234,-69.76416015625,0.0
-21.799388885498047,-68.82817840576172,0.0
-22.750513076782227,-67.91404724121094,0.0
-23.644723892211914,-67.02747344970703,0.0
-24.47662353515625,-66.17415618896484,0.0
-25.240814208984375,-65.35978698730469,0.0
-25.93189811706543,-64.59007263183594,0.0
-26.544475555419922,-63.870704650878906,0.0
-27.68301010131836,-62.43789291381836,-0.23611468076705933
-28.82858657836914,-60.88855743408203,-0.8888919949531555
-29.96853256225586,-59.237144470214844,-1.8750027418136597
-31.090173721313477,-57.49810028076172,-3.1111135482788086
-32.18083190917969,-55.68586349487305,-4.513891220092773
-33.22783279418945,-53.814884185791016,-6.000001907348633
-34.218502044677734,-51.89960479736328,-7.486112594604492
-35.14016342163086,-49.9544677734375,-8.888890266418457
-35.980140686035156,-47.993919372558594,-10.125000953674316
-36.72575759887695,-46.03240203857422,-11.111111640930176
-37.364341735839844,-44.0843620300293,-11.76388931274414
-37.883216857910156,-42.164241790771484,-12.0
-38.30124282836914,-40.29784393310547,-11.763887405395508
-38.648738861083984,-38.49324035644531,-11.111109733581543
-38.930179595947266,-36.73827362060547,-10.124999046325684
-39.15003967285156,-35.02078628540039,-8.888888359069824
-39.312801361083984,-33.32862091064453,-7.486110687255859
-39.422943115234375,-31.64962387084961,-6.0
-39.48494338989258,-29.971637725830078,-4.513888835906982
-39.50328063964844,-28.282506942749023,-3.1111111640930176
-39.4824333190918,-26.57007598876953,-1.875
-39.4268798828125,-24.822189331054688,-0.8888888955116272
-39.34109878540039,-23.026691436767578,-0.2361111044883728
-39.22956848144531,-21.171424865722656,0.0
-38.89573287963867,-18.260101318359375,-3.1464946204096123e-09
-38.26980209350586,-15.120942115783691,-1.1923340537123295e-08
-37.37192153930664,-11.796808242797852,-2.5336817088827956e-08
-36.22224044799805,-8.330561637878418,-4.239315742893268e-08
-34.840904235839844,-4.76506233215332,-6.209859293448972e-08
-33.2480583190918,-1.1431725025177002,-8.34593549825513e-08
-31.46385383605957,2.4922471046447754,-1.0548168205559705e-07
-29.50843620300293,6.098335266113281,-1.2717180197796552e-07
-27.401954650878906,9.632230758666992,-1.4753594257399527e-07
-25.164554595947266,13.05107307434082,-1.655803458788796e-07
-22.81638526916504,16.312000274658203,-1.8031124682238442e-07
-20.377593994140625,19.37215232849121,-1.9073488033427566e-07
-19.020530700683594,20.944618225097656,-1.9485099755911506e-07
-17.617528915405273,22.4871768951416,-1.9863834666011826e-07
-16.164634704589844,24.000789642333984,-2.0209328965847817e-07
-14.657894134521484,25.48641014099121,-2.0521223120795185e-07
-13.093350410461426,26.944997787475586,-2.079915475405869e-07
-11.467050552368164,28.37750816345215,-2.1042761488843098e-07
-9.775038719177246,29.78489875793457,-2.125168236943864e-07
-8.013360023498535,31.16812515258789,-2.142555501905008e-07
-6.1780595779418945,32.52814483642578,-2.156401848196765e-07
-4.2651824951171875,33.86591339111328,-2.1666711802481586e-07
-2.2707741260528564,35.18239212036133,-2.173327260379665e-07
-0.19087934494018555,36.47853469848633,-2.1763339930203074e-07
1.2393335103988647,37.31731414794922,-2.1463689847678324e-07
2.641164779663086,38.07878112792969,-2.066840352199506e-07
4.043899059295654,38.77260971069336,-1.9556959784949868e-07
5.476821422576904,39.40846633911133,-1.8308844573766692e-07
6.969217300415039,39.99602127075195,-1.710354666784042e-07
8.550372123718262,40.544944763183594,-1.6120552004394995e-07
10.249570846557617,41.06490707397461,-1.5539347941739834e-07
12.096098899841309,41.56557846069336,-1.5539423259269824e-07
14.119240760803223,42.0566291809082,-1.630026389420891e-07
16.348281860351562,42.5477294921875,-1.8001357204866508e-07
18.81250762939453,43.04854965209961,-2.0822190549552033e-07
21.541202545166016,43.56875991821289,-2.4942252707660373e-07
24.461997985839844,44.031219482421875,-2.855587695194117e-07
27.41345977783203,44.32834243774414,-2.987878531257593e-07
30.38949203491211,44.442352294921875,-2.928771323240653e-07
33.38398742675781,44.35547637939453,-2.7159396154274873e-07
36.390838623046875,44.04994201660156,-2.38705666788519e-07
39.4039421081543,43.507972717285156,-1.9797958827894035e-07
42.41719436645508,42.711795806884766,-1.5318303780986753e-07
45.42448425292969,41.643638610839844,-1.0808335559886473e-07
48.419708251953125,40.285728454589844,-6.644788186349615e-08
51.39676284790039,38.62028884887695,-3.2043946163184955e-08
54.34954071044922,36.62954330444336,-8.638875392819045e-09
57.271934509277344,34.29572296142578,0.0
60.6072998046875,30.997791290283203,0.0
63.51401901245117,27.268699645996094,0.0
65.9735336303711,23.1663818359375,0.0
67.96726989746094,18.748764038085938,0.0
69.47665405273438,14.073774337768555,0.0
70.48310852050781,9.199338912963867,0.0
70.96806335449219,4.183385848999023,0.0
70.91294860839844,-0.9161591529846191,0.0
70.29918670654297,-6.04136848449707,0.0
69.10820007324219,-11.134315490722656,0.0
67.32141876220703,-16.137073516845703,0.0
64.92027282714844,-20.991714477539062,0.0
61.48236083984375,-26.28083038330078,0.0
57.716636657714844,-30.747583389282227,0.0
53.67671585083008,-34.424957275390625,0.0
49.416202545166016,-37.34593963623047,0.0
44.98870086669922,-39.543514251708984,0.0
40.44781494140625,-41.05066680908203,0.0
35.84714889526367,-41.90038299560547,0.0
31.24030876159668,-42.125648498535156,0.0
26.68089485168457,-41.75945281982422,0.0
22.222511291503906,-40.83477783203125,0.0
17.918764114379883,-39.384613037109375,0.0
13.823254585266113,-37.44194030761719,0.0
13.823254585266113,-37.44194030761719,-100.0

разрывы 0
98,120
62,84

разрывы 1
62,84
26,48

унитазы
70,60
-70,60
0,-108

